[api-updater (non-obsolete-error-filter)] 29/10/2021 9:22:02 : Starting C:/Program Files/Unity/Hub/Editor/2020.3.19f1/Editor/Data/Tools/ScriptUpdater/APIUpdater.NonObsoleteApiUpdaterDetector.exe
[api-updater (non-obsolete-error-filter)] 
----------------------------------
jit/startup time      : 612,6396ms
moved types parse time: 39ms
candidates parse time : 1ms
C# parse time         : 385ms
candidates check time : 30ms
console write time    : 0ms

[api-updater (non-obsolete-error-filter)] 29/10/2021 9:22:45 : Starting C:/Program Files/Unity/Hub/Editor/2020.3.19f1/Editor/Data/Tools/ScriptUpdater/APIUpdater.NonObsoleteApiUpdaterDetector.exe
[api-updater (non-obsolete-error-filter)] 
----------------------------------
jit/startup time      : 51,2422ms
moved types parse time: 36ms
candidates parse time : 0ms
C# parse time         : 118ms
candidates check time : 27ms
console write time    : 0ms

[api-updater (non-obsolete-error-filter)] 29/10/2021 9:58:21 : Starting C:/Program Files/Unity/Hub/Editor/2020.3.19f1/Editor/Data/Tools/ScriptUpdater/APIUpdater.NonObsoleteApiUpdaterDetector.exe
[api-updater (non-obsolete-error-filter)] Exception caught while loading types from C:\Users\luisl\trabajo scripting\Library\ScriptAssemblies\Unity.TextMeshPro.Editor.dll (some types may not be loaded)
	Exception of type 'System.Reflection.ReflectionTypeLoadException' was thrown.
	  at (wrapper managed-to-native) System.Reflection.Assembly.GetTypes(System.Reflection.Assembly,bool)
  at System.Reflection.Assembly.GetTypes () [0x00000] in <695d1cc93cca45069c528c15c9fdd749>:0 
  at APIUpdater.NonObsoleteApiUpdaterDetector.ExtraInfoParser+<LoadTypesWithMovedFromAttributeAsync>d__3.MoveNext () [0x000c8] in <68bff7873e0e4aa69a14dfc30bebbe3e>:0 
	Could not load file or assembly 'UnityEditor.CoreModule, Version=0.0.0.0, Culture=neutral, PublicKeyToken=null' or one of its dependencies.

[api-updater (non-obsolete-error-filter)] 
----------------------------------
jit/startup time      : 50,947ms
moved types parse time: 33ms
candidates parse time : 0ms
C# parse time         : 125ms
candidates check time : 29ms
console write time    : 0ms

[api-updater (non-obsolete-error-filter)] 04/11/2021 21:25:25 : Starting C:/Program Files/Unity/Hub/Editor/2020.3.19f1/Editor/Data/Tools/ScriptUpdater/APIUpdater.NonObsoleteApiUpdaterDetector.exe
[api-updater (non-obsolete-error-filter)] Exception caught while loading types from C:\Users\luisl\trabajo scripting\Library\ScriptAssemblies\Unity.TextMeshPro.Editor.dll (some types may not be loaded)
	Exception of type 'System.Reflection.ReflectionTypeLoadException' was thrown.
	  at (wrapper managed-to-native) System.Reflection.Assembly.GetTypes(System.Reflection.Assembly,bool)
  at System.Reflection.Assembly.GetTypes () [0x00000] in <695d1cc93cca45069c528c15c9fdd749>:0 
  at APIUpdater.NonObsoleteApiUpdaterDetector.ExtraInfoParser+<LoadTypesWithMovedFromAttributeAsync>d__3.MoveNext () [0x000c8] in <68bff7873e0e4aa69a14dfc30bebbe3e>:0 
	Could not load file or assembly 'UnityEditor.CoreModule, Version=0.0.0.0, Culture=neutral, PublicKeyToken=null' or one of its dependencies.

[api-updater (non-obsolete-error-filter)] 
----------------------------------
jit/startup time      : 1300,2577ms
moved types parse time: 56ms
candidates parse time : 1ms
C# parse time         : 210ms
candidates check time : 35ms
console write time    : 0ms

[api-updater (non-obsolete-error-filter)] 05/11/2021 8:23:04 : Starting C:/Program Files/Unity/Hub/Editor/2020.3.19f1/Editor/Data/Tools/ScriptUpdater/APIUpdater.NonObsoleteApiUpdaterDetector.exe
[api-updater (non-obsolete-error-filter)] Exception caught while loading types from C:\Users\luisl\trabajo scripting\Library\ScriptAssemblies\Unity.TextMeshPro.Editor.dll (some types may not be loaded)
	Exception of type 'System.Reflection.ReflectionTypeLoadException' was thrown.
	  at (wrapper managed-to-native) System.Reflection.Assembly.GetTypes(System.Reflection.Assembly,bool)
  at System.Reflection.Assembly.GetTypes () [0x00000] in <695d1cc93cca45069c528c15c9fdd749>:0 
  at APIUpdater.NonObsoleteApiUpdaterDetector.ExtraInfoParser+<LoadTypesWithMovedFromAttributeAsync>d__3.MoveNext () [0x000c8] in <68bff7873e0e4aa69a14dfc30bebbe3e>:0 
	Could not load file or assembly 'UnityEditor.CoreModule, Version=0.0.0.0, Culture=neutral, PublicKeyToken=null' or one of its dependencies.

[api-updater (non-obsolete-error-filter)] 
----------------------------------
jit/startup time      : 174,9013ms
moved types parse time: 56ms
candidates parse time : 1ms
C# parse time         : 236ms
candidates check time : 43ms
console write time    : 0ms

[api-updater (non-obsolete-error-filter)] 05/11/2021 8:34:19 : Starting C:/Program Files/Unity/Hub/Editor/2020.3.19f1/Editor/Data/Tools/ScriptUpdater/APIUpdater.NonObsoleteApiUpdaterDetector.exe
[api-updater (non-obsolete-error-filter)] 
----------------------------------
jit/startup time      : 1706,8353ms
moved types parse time: 48ms
candidates parse time : 1ms
C# parse time         : 217ms
candidates check time : 43ms
console write time    : 0ms

[api-updater (non-obsolete-error-filter)] 05/11/2021 8:34:24 : Starting C:/Program Files/Unity/Hub/Editor/2020.3.19f1/Editor/Data/Tools/ScriptUpdater/APIUpdater.NonObsoleteApiUpdaterDetector.exe
[api-updater (non-obsolete-error-filter)] 
----------------------------------
jit/startup time      : 69,2565ms
moved types parse time: 62ms
candidates parse time : 1ms
C# parse time         : 165ms
candidates check time : 36ms
console write time    : 0ms

[api-updater (non-obsolete-error-filter)] 05/11/2021 8:51:32 : Starting C:/Program Files/Unity/Hub/Editor/2020.3.19f1/Editor/Data/Tools/ScriptUpdater/APIUpdater.NonObsoleteApiUpdaterDetector.exe
[api-updater (non-obsolete-error-filter)] 
----------------------------------
jit/startup time      : 126,9297ms
moved types parse time: 46ms
candidates parse time : 1ms
C# parse time         : 153ms
candidates check time : 33ms
console write time    : 0ms

[api-updater (non-obsolete-error-filter)] 12/11/2021 10:01:11 : Starting C:/Program Files/Unity/Hub/Editor/2020.3.19f1/Editor/Data/Tools/ScriptUpdater/APIUpdater.NonObsoleteApiUpdaterDetector.exe
[api-updater (non-obsolete-error-filter)] 
----------------------------------
jit/startup time      : 588,3934ms
moved types parse time: 43ms
candidates parse time : 1ms
C# parse time         : 231ms
candidates check time : 34ms
console write time    : 0ms

[api-updater (non-obsolete-error-filter)] 12/11/2021 10:02:58 : Starting C:/Program Files/Unity/Hub/Editor/2020.3.19f1/Editor/Data/Tools/ScriptUpdater/APIUpdater.NonObsoleteApiUpdaterDetector.exe
[api-updater (non-obsolete-error-filter)] 
----------------------------------
jit/startup time      : 62,8121ms
moved types parse time: 43ms
candidates parse time : 1ms
C# parse time         : 134ms
candidates check time : 30ms
console write time    : 0ms

[api-updater (non-obsolete-error-filter)] 12/11/2021 10:04:21 : Starting C:/Program Files/Unity/Hub/Editor/2020.3.19f1/Editor/Data/Tools/ScriptUpdater/APIUpdater.NonObsoleteApiUpdaterDetector.exe
[api-updater (non-obsolete-error-filter)] 
----------------------------------
jit/startup time      : 104,8905ms
moved types parse time: 48ms
candidates parse time : 2ms
C# parse time         : 139ms
candidates check time : 32ms
console write time    : 0ms

[api-updater (non-obsolete-error-filter)] 12/11/2021 10:05:59 : Starting C:/Program Files/Unity/Hub/Editor/2020.3.19f1/Editor/Data/Tools/ScriptUpdater/APIUpdater.NonObsoleteApiUpdaterDetector.exe
[api-updater (non-obsolete-error-filter)] 
----------------------------------
jit/startup time      : 157,4357ms
moved types parse time: 117ms
candidates parse time : 2ms
C# parse time         : 324ms
candidates check time : 43ms
console write time    : 0ms

[api-updater (non-obsolete-error-filter)] 12/11/2021 10:06:26 : Starting C:/Program Files/Unity/Hub/Editor/2020.3.19f1/Editor/Data/Tools/ScriptUpdater/APIUpdater.NonObsoleteApiUpdaterDetector.exe
[api-updater (non-obsolete-error-filter)] 
----------------------------------
jit/startup time      : 164,9408ms
moved types parse time: 56ms
candidates parse time : 1ms
C# parse time         : 202ms
candidates check time : 35ms
console write time    : 0ms

